{
    "CooperativeBehaviour": {
        "checkpoints": [
            {
                "steps": 36686,
                "file_path": "results\\MultiAgent_11\\CooperativeBehaviour\\CooperativeBehaviour-36686.onnx",
                "reward": -12.461428489003863,
                "creation_time": 1641919441.0158834,
                "auxillary_file_paths": [
                    "results\\MultiAgent_11\\CooperativeBehaviour\\CooperativeBehaviour-36686.pt"
                ]
            }
        ],
        "final_checkpoint": {
            "steps": 36686,
            "file_path": "results\\MultiAgent_11\\CooperativeBehaviour.onnx",
            "reward": -12.461428489003863,
            "creation_time": 1641919441.0158834,
            "auxillary_file_paths": [
                "results\\MultiAgent_11\\CooperativeBehaviour\\CooperativeBehaviour-36686.pt"
            ]
        }
    },
    "metadata": {
        "stats_format_version": "0.3.0",
        "mlagents_version": "0.27.0",
        "torch_version": "1.7.1+cu110"
    }
}