%YAML 1.1
%TAG !u! tag:unity3d.com,2011:
--- !u!114 &11400000
MonoBehaviour:
  m_ObjectHideFlags: 0
  m_CorrespondingSourceObject: {fileID: 0}
  m_PrefabInstance: {fileID: 0}
  m_PrefabAsset: {fileID: 0}
  m_GameObject: {fileID: 0}
  m_Enabled: 1
  m_EditorHideFlags: 0
  m_Script: {fileID: 11500000, guid: e7aeb2d9e0d07114e8d5aa138961bc70, type: 3}
  m_Name: ColorPalette
  m_EditorClassIdentifier: 
  alizarinRed: {r: 0.9058824, g: 0.29803923, b: 0.23529413, a: 1}
  emerlandGreen: {r: 0.18039216, g: 0.8000001, b: 0.4431373, a: 1}
  sunflowerYellow: {r: 0.9450981, g: 0.7686275, b: 0.058823533, a: 1}
