{
    "name": "root",
    "gauges": {
        "CooperativeBehaviour.Policy.Entropy.mean": {
            "value": 1.4225919246673584,
            "min": 1.4088695049285889,
            "max": 1.4225919246673584,
            "count": 5
        },
        "CooperativeBehaviour.Policy.Entropy.sum": {
            "value": 71129.59375,
            "min": 70415.296875,
            "max": 71129.59375,
            "count": 5
        },
        "CooperativeBehaviour.Environment.EpisodeLength.mean": {
            "value": 999.0,
            "min": 77.43238993710692,
            "max": 999.0,
            "count": 5
        },
        "CooperativeBehaviour.Environment.EpisodeLength.sum": {
            "value": 49950.0,
            "min": 49198.0,
            "max": 49950.0,
            "count": 5
        },
        "CooperativeBehaviour.Step.mean": {
            "value": 249996.0,
            "min": 49969.0,
            "max": 249996.0,
            "count": 5
        },
        "CooperativeBehaviour.Step.sum": {
            "value": 249996.0,
            "min": 49969.0,
            "max": 249996.0,
            "count": 5
        },
        "CooperativeBehaviour.Policy.ExtrinsicValueEstimate.mean": {
            "value": 3.7115845680236816,
            "min": -6.463660717010498,
            "max": 3.7115845680236816,
            "count": 5
        },
        "CooperativeBehaviour.Policy.ExtrinsicValueEstimate.sum": {
            "value": 2969.267578125,
            "min": -6470.12451171875,
            "max": 2969.267578125,
            "count": 5
        },
        "CooperativeBehaviour.Environment.CumulativeReward.mean": {
            "value": 85.80500218242406,
            "min": -18.51779620767109,
            "max": 85.80500218242406,
            "count": 5
        },
        "CooperativeBehaviour.Environment.CumulativeReward.sum": {
            "value": 4290.250109121203,
            "min": -11758.800591871142,
            "max": 4290.250109121203,
            "count": 5
        },
        "CooperativeBehaviour.Policy.ExtrinsicReward.mean": {
            "value": 85.80500218242406,
            "min": -18.51779620767109,
            "max": 85.80500218242406,
            "count": 5
        },
        "CooperativeBehaviour.Policy.ExtrinsicReward.sum": {
            "value": 4290.250109121203,
            "min": -11758.800591871142,
            "max": 4290.250109121203,
            "count": 5
        },
        "CooperativeBehaviour.Losses.PolicyLoss.mean": {
            "value": 0.025046578149000805,
            "min": 0.020467000217953075,
            "max": 0.025046578149000805,
            "count": 5
        },
        "CooperativeBehaviour.Losses.PolicyLoss.sum": {
            "value": 0.12523289074500402,
            "min": 0.0818680008718123,
            "max": 0.12523289074500402,
            "count": 5
        },
        "CooperativeBehaviour.Losses.ValueLoss.mean": {
            "value": 0.902028036514918,
            "min": 0.30957133581240975,
            "max": 6.655442647139232,
            "count": 5
        },
        "CooperativeBehaviour.Losses.ValueLoss.sum": {
            "value": 4.51014018257459,
            "min": 1.5478566790620487,
            "max": 26.621770588556927,
            "count": 5
        },
        "CooperativeBehaviour.Policy.LearningRate.mean": {
            "value": 0.00016445044518320002,
            "min": 0.00016445044518320002,
            "max": 0.00028460730513089997,
            "count": 5
        },
        "CooperativeBehaviour.Policy.LearningRate.sum": {
            "value": 0.0008222522259160001,
            "min": 0.0008222522259160001,
            "max": 0.0012843756718748,
            "count": 5
        },
        "CooperativeBehaviour.Policy.Epsilon.mean": {
            "value": 0.1548168,
            "min": 0.1548168,
            "max": 0.1948691,
            "count": 5
        },
        "CooperativeBehaviour.Policy.Epsilon.sum": {
            "value": 0.774084,
            "min": 0.774084,
            "max": 0.9281252000000001,
            "count": 5
        },
        "CooperativeBehaviour.Policy.Beta.mean": {
            "value": 0.0027453583200000007,
            "min": 0.0027453583200000007,
            "max": 0.004743968089999998,
            "count": 5
        },
        "CooperativeBehaviour.Policy.Beta.sum": {
            "value": 0.013726791600000003,
            "min": 0.013726791600000003,
            "max": 0.021413447480000004,
            "count": 5
        },
        "CooperativeBehaviour.IsTraining.mean": {
            "value": 1.0,
            "min": 1.0,
            "max": 1.0,
            "count": 5
        },
        "CooperativeBehaviour.IsTraining.sum": {
            "value": 1.0,
            "min": 1.0,
            "max": 1.0,
            "count": 5
        }
    },
    "metadata": {
        "timer_format_version": "0.1.0",
        "start_time_seconds": "1641763684",
        "python_version": "3.9.9 (tags/v3.9.9:ccb0e6a, Nov 15 2021, 18:08:50) [MSC v.1929 64 bit (AMD64)]",
        "command_line_arguments": "D:\\MultiAgentCollab\\venv\\Scripts\\mlagents-learn --run-id=MultiAgent_01",
        "mlagents_version": "0.27.0",
        "mlagents_envs_version": "0.27.0",
        "communication_protocol_version": "1.5.0",
        "pytorch_version": "1.7.1+cu110",
        "numpy_version": "1.22.0",
        "end_time_seconds": "1641765226"
    },
    "total": 1542.2833859,
    "count": 1,
    "self": 0.005943900000147551,
    "children": {
        "run_training.setup": {
            "total": 0.03866809999999998,
            "count": 1,
            "self": 0.03866809999999998
        },
        "TrainerController.start_learning": {
            "total": 1542.2387738999998,
            "count": 1,
            "self": 2.955544599986524,
            "children": {
                "TrainerController._reset_env": {
                    "total": 19.663463,
                    "count": 1,
                    "self": 19.663463
                },
                "TrainerController.advance": {
                    "total": 1518.7113668000134,
                    "count": 146385,
                    "self": 3.001671300052976,
                    "children": {
                        "env_step": {
                            "total": 1414.7206103999695,
                            "count": 146385,
                            "self": 1038.4830361999768,
                            "children": {
                                "SubprocessEnvManager._take_step": {
                                    "total": 374.3484372999804,
                                    "count": 146385,
                                    "self": 9.490466299967977,
                                    "children": {
                                        "TorchPolicy.evaluate": {
                                            "total": 364.8579710000124,
                                            "count": 145567,
                                            "self": 161.63998220001866,
                                            "children": {
                                                "TorchPolicy.sample_actions": {
                                                    "total": 203.21798879999375,
                                                    "count": 145567,
                                                    "self": 203.21798879999375
                                                }
                                            }
                                        }
                                    }
                                },
                                "workers": {
                                    "total": 1.8891369000123213,
                                    "count": 146384,
                                    "self": 0.0,
                                    "children": {
                                        "worker_root": {
                                            "total": 1522.21604120001,
                                            "count": 146384,
                                            "is_parallel": true,
                                            "self": 622.5378100999882,
                                            "children": {
                                                "steps_from_proto": {
                                                    "total": 0.00029490000000009786,
                                                    "count": 1,
                                                    "is_parallel": true,
                                                    "self": 0.00011560000000265802,
                                                    "children": {
                                                        "_process_rank_one_or_two_observation": {
                                                            "total": 0.00017929999999743984,
                                                            "count": 2,
                                                            "is_parallel": true,
                                                            "self": 0.00017929999999743984
                                                        }
                                                    }
                                                },
                                                "UnityEnvironment.step": {
                                                    "total": 899.6779362000219,
                                                    "count": 146384,
                                                    "is_parallel": true,
                                                    "self": 11.891932199999246,
                                                    "children": {
                                                        "UnityEnvironment._generate_step_input": {
                                                            "total": 11.687848500019502,
                                                            "count": 146384,
                                                            "is_parallel": true,
                                                            "self": 11.687848500019502
                                                        },
                                                        "communicator.exchange": {
                                                            "total": 844.7515219999602,
                                                            "count": 146384,
                                                            "is_parallel": true,
                                                            "self": 844.7515219999602
                                                        },
                                                        "steps_from_proto": {
                                                            "total": 31.346633500042866,
                                                            "count": 146384,
                                                            "is_parallel": true,
                                                            "self": 16.402604500036478,
                                                            "children": {
                                                                "_process_rank_one_or_two_observation": {
                                                                    "total": 14.944029000006388,
                                                                    "count": 292768,
                                                                    "is_parallel": true,
                                                                    "self": 14.944029000006388
                                                                }
                                                            }
                                                        }
                                                    }
                                                }
                                            }
                                        }
                                    }
                                }
                            }
                        },
                        "trainer_advance": {
                            "total": 100.98908509999083,
                            "count": 146384,
                            "self": 3.3643963000046,
                            "children": {
                                "process_trajectory": {
                                    "total": 36.84538699998612,
                                    "count": 146384,
                                    "self": 36.84538699998612
                                },
                                "_update_policy": {
                                    "total": 60.77930180000011,
                                    "count": 28,
                                    "self": 45.894756899998896,
                                    "children": {
                                        "TorchPPOOptimizer.update": {
                                            "total": 14.884544900001217,
                                            "count": 840,
                                            "self": 14.884544900001217
                                        }
                                    }
                                }
                            }
                        }
                    }
                },
                "trainer_threads": {
                    "total": 9.99999883788405e-07,
                    "count": 1,
                    "self": 9.99999883788405e-07
                },
                "TrainerController._save_models": {
                    "total": 0.9083984999999757,
                    "count": 1,
                    "self": 0.002842099999952552,
                    "children": {
                        "RLTrainer._checkpoint": {
                            "total": 0.9055564000000231,
                            "count": 1,
                            "self": 0.9055564000000231
                        }
                    }
                }
            }
        }
    }
}