{
    "name": "root",
    "gauges": {
        "CooperativeBehaviour.Policy.Entropy.mean": {
            "value": 1.4100115299224854,
            "min": 1.4100115299224854,
            "max": 1.4160393476486206,
            "count": 2
        },
        "CooperativeBehaviour.Policy.Entropy.sum": {
            "value": 70500.578125,
            "min": 70500.578125,
            "max": 70920.9140625,
            "count": 2
        },
        "CooperativeBehaviour.Step.mean": {
            "value": 99988.0,
            "min": 49988.0,
            "max": 99988.0,
            "count": 2
        },
        "CooperativeBehaviour.Step.sum": {
            "value": 99988.0,
            "min": 49988.0,
            "max": 99988.0,
            "count": 2
        },
        "CooperativeBehaviour.Policy.ExtrinsicValueEstimate.mean": {
            "value": -1.5164859294891357,
            "min": -1.5164859294891357,
            "max": -0.6211204528808594,
            "count": 2
        },
        "CooperativeBehaviour.Policy.ExtrinsicValueEstimate.sum": {
            "value": -1213.188720703125,
            "min": -1213.188720703125,
            "max": -499.380859375,
            "count": 2
        },
        "CooperativeBehaviour.Environment.EpisodeLength.mean": {
            "value": 999.0,
            "min": 822.5333333333333,
            "max": 999.0,
            "count": 2
        },
        "CooperativeBehaviour.Environment.EpisodeLength.sum": {
            "value": 49950.0,
            "min": 49352.0,
            "max": 49950.0,
            "count": 2
        },
        "CooperativeBehaviour.Environment.CumulativeReward.mean": {
            "value": -29.998750154972075,
            "min": -31.36492262283961,
            "max": -29.998750154972075,
            "count": 2
        },
        "CooperativeBehaviour.Environment.CumulativeReward.sum": {
            "value": -1499.9375077486038,
            "min": -1881.8953573703766,
            "max": -1499.9375077486038,
            "count": 2
        },
        "CooperativeBehaviour.Policy.ExtrinsicReward.mean": {
            "value": -29.998750154972075,
            "min": -31.36492262283961,
            "max": -29.998750154972075,
            "count": 2
        },
        "CooperativeBehaviour.Policy.ExtrinsicReward.sum": {
            "value": -1499.9375077486038,
            "min": -1881.8953573703766,
            "max": -1499.9375077486038,
            "count": 2
        },
        "CooperativeBehaviour.Losses.PolicyLoss.mean": {
            "value": 0.025832597116629285,
            "min": 0.02166060442881038,
            "max": 0.025832597116629285,
            "count": 2
        },
        "CooperativeBehaviour.Losses.PolicyLoss.sum": {
            "value": 0.12916298558314643,
            "min": 0.08664241771524152,
            "max": 0.12916298558314643,
            "count": 2
        },
        "CooperativeBehaviour.Losses.ValueLoss.mean": {
            "value": 0.016249383275086682,
            "min": 0.016249383275086682,
            "max": 0.682352106863012,
            "count": 2
        },
        "CooperativeBehaviour.Losses.ValueLoss.sum": {
            "value": 0.08124691637543341,
            "min": 0.08124691637543341,
            "max": 2.729408427452048,
            "count": 2
        },
        "CooperativeBehaviour.Policy.LearningRate.mean": {
            "value": 0.00025685521438159994,
            "min": 0.00025685521438159994,
            "max": 0.0002845906551364499,
            "count": 2
        },
        "CooperativeBehaviour.Policy.LearningRate.sum": {
            "value": 0.0012842760719079997,
            "min": 0.0011383626205457996,
            "max": 0.0012842760719079997,
            "count": 2
        },
        "CooperativeBehaviour.Policy.Epsilon.mean": {
            "value": 0.1856184,
            "min": 0.1856184,
            "max": 0.19486355000000005,
            "count": 2
        },
        "CooperativeBehaviour.Policy.Epsilon.sum": {
            "value": 0.9280919999999999,
            "min": 0.7794542000000002,
            "max": 0.9280919999999999,
            "count": 2
        },
        "CooperativeBehaviour.Policy.Beta.mean": {
            "value": 0.004282358159999999,
            "min": 0.004282358159999999,
            "max": 0.004743691144999999,
            "count": 2
        },
        "CooperativeBehaviour.Policy.Beta.sum": {
            "value": 0.021411790799999997,
            "min": 0.018974764579999998,
            "max": 0.021411790799999997,
            "count": 2
        },
        "CooperativeBehaviour.IsTraining.mean": {
            "value": 1.0,
            "min": 1.0,
            "max": 1.0,
            "count": 2
        },
        "CooperativeBehaviour.IsTraining.sum": {
            "value": 1.0,
            "min": 1.0,
            "max": 1.0,
            "count": 2
        }
    },
    "metadata": {
        "timer_format_version": "0.1.0",
        "start_time_seconds": "1641765587",
        "python_version": "3.9.9 (tags/v3.9.9:ccb0e6a, Nov 15 2021, 18:08:50) [MSC v.1929 64 bit (AMD64)]",
        "command_line_arguments": "D:\\MultiAgentCollab\\venv\\Scripts\\mlagents-learn --run-id=MultiAgent_02 --force",
        "mlagents_version": "0.27.0",
        "mlagents_envs_version": "0.27.0",
        "communication_protocol_version": "1.5.0",
        "pytorch_version": "1.7.1+cu110",
        "numpy_version": "1.22.0",
        "end_time_seconds": "1641766436"
    },
    "total": 849.7844905000001,
    "count": 1,
    "self": 0.0073562000001174965,
    "children": {
        "run_training.setup": {
            "total": 0.0363696,
            "count": 1,
            "self": 0.0363696
        },
        "TrainerController.start_learning": {
            "total": 849.7407647,
            "count": 1,
            "self": 1.6522733999931916,
            "children": {
                "TrainerController._reset_env": {
                    "total": 13.4097788,
                    "count": 1,
                    "self": 13.4097788
                },
                "TrainerController.advance": {
                    "total": 833.7997256000068,
                    "count": 73038,
                    "self": 1.5722415999848636,
                    "children": {
                        "env_step": {
                            "total": 781.6949749999982,
                            "count": 73038,
                            "self": 574.3745006999991,
                            "children": {
                                "SubprocessEnvManager._take_step": {
                                    "total": 206.28742269999387,
                                    "count": 73038,
                                    "self": 5.443650799999119,
                                    "children": {
                                        "TorchPolicy.evaluate": {
                                            "total": 200.84377189999475,
                                            "count": 72891,
                                            "self": 84.94513400000253,
                                            "children": {
                                                "TorchPolicy.sample_actions": {
                                                    "total": 115.89863789999222,
                                                    "count": 72891,
                                                    "self": 115.89863789999222
                                                }
                                            }
                                        }
                                    }
                                },
                                "workers": {
                                    "total": 1.033051600005157,
                                    "count": 73037,
                                    "self": 0.0,
                                    "children": {
                                        "worker_root": {
                                            "total": 837.7389843999914,
                                            "count": 73037,
                                            "is_parallel": true,
                                            "self": 341.24358359998945,
                                            "children": {
                                                "steps_from_proto": {
                                                    "total": 0.00028479999999930783,
                                                    "count": 1,
                                                    "is_parallel": true,
                                                    "self": 0.00012559999999872673,
                                                    "children": {
                                                        "_process_rank_one_or_two_observation": {
                                                            "total": 0.0001592000000005811,
                                                            "count": 2,
                                                            "is_parallel": true,
                                                            "self": 0.0001592000000005811
                                                        }
                                                    }
                                                },
                                                "UnityEnvironment.step": {
                                                    "total": 496.495116000002,
                                                    "count": 73037,
                                                    "is_parallel": true,
                                                    "self": 6.898511100019675,
                                                    "children": {
                                                        "UnityEnvironment._generate_step_input": {
                                                            "total": 6.62997889998911,
                                                            "count": 73037,
                                                            "is_parallel": true,
                                                            "self": 6.62997889998911
                                                        },
                                                        "communicator.exchange": {
                                                            "total": 465.31626319999805,
                                                            "count": 73037,
                                                            "is_parallel": true,
                                                            "self": 465.31626319999805
                                                        },
                                                        "steps_from_proto": {
                                                            "total": 17.65036279999514,
                                                            "count": 73037,
                                                            "is_parallel": true,
                                                            "self": 9.365978100027966,
                                                            "children": {
                                                                "_process_rank_one_or_two_observation": {
                                                                    "total": 8.284384699967173,
                                                                    "count": 146074,
                                                                    "is_parallel": true,
                                                                    "self": 8.284384699967173
                                                                }
                                                            }
                                                        }
                                                    }
                                                }
                                            }
                                        }
                                    }
                                }
                            }
                        },
                        "trainer_advance": {
                            "total": 50.5325090000238,
                            "count": 73037,
                            "self": 1.897998400008646,
                            "children": {
                                "process_trajectory": {
                                    "total": 18.164175800015165,
                                    "count": 73037,
                                    "self": 18.164175800015165
                                },
                                "_update_policy": {
                                    "total": 30.47033479999999,
                                    "count": 14,
                                    "self": 22.85723359999973,
                                    "children": {
                                        "TorchPPOOptimizer.update": {
                                            "total": 7.6131012000002585,
                                            "count": 420,
                                            "self": 7.6131012000002585
                                        }
                                    }
                                }
                            }
                        }
                    }
                },
                "trainer_threads": {
                    "total": 9.999999974752427e-07,
                    "count": 1,
                    "self": 9.999999974752427e-07
                },
                "TrainerController._save_models": {
                    "total": 0.8789858999999751,
                    "count": 1,
                    "self": 0.0020542999999406675,
                    "children": {
                        "RLTrainer._checkpoint": {
                            "total": 0.8769316000000345,
                            "count": 1,
                            "self": 0.8769316000000345
                        }
                    }
                }
            }
        }
    }
}