{
    "CooperativeBehaviour": {
        "checkpoints": [
            {
                "steps": 145713,
                "file_path": "results\\MultiAgent_02\\CooperativeBehaviour\\CooperativeBehaviour-145713.onnx",
                "reward": -29.996922850608826,
                "creation_time": 1641766436.951296,
                "auxillary_file_paths": [
                    "results\\MultiAgent_02\\CooperativeBehaviour\\CooperativeBehaviour-145713.pt"
                ]
            }
        ],
        "final_checkpoint": {
            "steps": 145713,
            "file_path": "results\\MultiAgent_02\\CooperativeBehaviour.onnx",
            "reward": -29.996922850608826,
            "creation_time": 1641766436.951296,
            "auxillary_file_paths": [
                "results\\MultiAgent_02\\CooperativeBehaviour\\CooperativeBehaviour-145713.pt"
            ]
        }
    },
    "metadata": {
        "stats_format_version": "0.3.0",
        "mlagents_version": "0.27.0",
        "torch_version": "1.7.1+cu110"
    }
}