{
    "name": "root",
    "gauges": {
        "CooperativeBehaviour.Policy.Entropy.mean": {
            "value": 1.690972089767456,
            "min": 1.690972089767456,
            "max": 1.9298089742660522,
            "count": 4
        },
        "CooperativeBehaviour.Policy.Entropy.sum": {
            "value": 101454.9453125,
            "min": 101454.9453125,
            "max": 115950.640625,
            "count": 4
        },
        "CooperativeBehaviour.Step.mean": {
            "value": 239949.0,
            "min": 59956.0,
            "max": 239949.0,
            "count": 4
        },
        "CooperativeBehaviour.Step.sum": {
            "value": 239949.0,
            "min": 59956.0,
            "max": 239949.0,
            "count": 4
        },
        "CooperativeBehaviour.Policy.ExtrinsicBaselineEstimate.mean": {
            "value": 4.330469608306885,
            "min": 0.03392774984240532,
            "max": 4.330469608306885,
            "count": 4
        },
        "CooperativeBehaviour.Policy.ExtrinsicBaselineEstimate.sum": {
            "value": 4178.9033203125,
            "min": 33.215267181396484,
            "max": 4178.9033203125,
            "count": 4
        },
        "CooperativeBehaviour.Policy.ExtrinsicValueEstimate.mean": {
            "value": 4.590545654296875,
            "min": 0.08940596878528595,
            "max": 4.590545654296875,
            "count": 4
        },
        "CooperativeBehaviour.Policy.ExtrinsicValueEstimate.sum": {
            "value": 4429.87646484375,
            "min": 87.5284423828125,
            "max": 4429.87646484375,
            "count": 4
        },
        "CooperativeBehaviour.Environment.EpisodeLength.mean": {
            "value": 1509.775,
            "min": 734.4285714285714,
            "max": 1687.3055555555557,
            "count": 4
        },
        "CooperativeBehaviour.Environment.EpisodeLength.sum": {
            "value": 60391.0,
            "min": 56551.0,
            "max": 61171.0,
            "count": 4
        },
        "CooperativeBehaviour.Environment.CumulativeReward.mean": {
            "value": -7.780999939516187,
            "min": -10.257402692619083,
            "max": -6.729166635001699,
            "count": 4
        },
        "CooperativeBehaviour.Environment.CumulativeReward.sum": {
            "value": -311.23999758064747,
            "min": -789.8200073316693,
            "max": -242.24999886006117,
            "count": 4
        },
        "CooperativeBehaviour.Policy.ExtrinsicReward.mean": {
            "value": 78.43674967437983,
            "min": 9.30592377532225,
            "max": 78.43674967437983,
            "count": 4
        },
        "CooperativeBehaviour.Policy.ExtrinsicReward.sum": {
            "value": 3137.469986975193,
            "min": 716.5561306998134,
            "max": 3137.469986975193,
            "count": 4
        },
        "CooperativeBehaviour.Losses.PolicyLoss.mean": {
            "value": 0.026202459858419996,
            "min": 0.02420736311727928,
            "max": 0.026202459858419996,
            "count": 4
        },
        "CooperativeBehaviour.Losses.PolicyLoss.sum": {
            "value": 0.15721475915051997,
            "min": 0.12494709324867775,
            "max": 0.15721475915051997,
            "count": 4
        },
        "CooperativeBehaviour.Losses.ValueLoss.mean": {
            "value": 2.6313764115174614,
            "min": 2.0164128118091162,
            "max": 2.6313764115174614,
            "count": 4
        },
        "CooperativeBehaviour.Losses.ValueLoss.sum": {
            "value": 15.788258469104768,
            "min": 11.308677879969279,
            "max": 15.788258469104768,
            "count": 4
        },
        "CooperativeBehaviour.Losses.BaselineLoss.mean": {
            "value": 3.0731286499235364,
            "min": 2.502692156632741,
            "max": 3.0731286499235364,
            "count": 4
        },
        "CooperativeBehaviour.Losses.BaselineLoss.sum": {
            "value": 18.43877189954122,
            "min": 12.513460783163707,
            "max": 18.43877189954122,
            "count": 4
        },
        "CooperativeBehaviour.Policy.LearningRate.mean": {
            "value": 0.0003,
            "min": 0.0003,
            "max": 0.0003,
            "count": 4
        },
        "CooperativeBehaviour.Policy.LearningRate.sum": {
            "value": 0.0017999999999999997,
            "min": 0.0014999999999999998,
            "max": 0.0017999999999999997,
            "count": 4
        },
        "CooperativeBehaviour.Policy.Epsilon.mean": {
            "value": 0.2000000000000001,
            "min": 0.2000000000000001,
            "max": 0.2000000000000001,
            "count": 4
        },
        "CooperativeBehaviour.Policy.Epsilon.sum": {
            "value": 1.2000000000000006,
            "min": 1.0000000000000004,
            "max": 1.2000000000000006,
            "count": 4
        },
        "CooperativeBehaviour.Policy.Beta.mean": {
            "value": 0.010000000000000002,
            "min": 0.010000000000000002,
            "max": 0.010000000000000002,
            "count": 4
        },
        "CooperativeBehaviour.Policy.Beta.sum": {
            "value": 0.06000000000000001,
            "min": 0.05000000000000001,
            "max": 0.06000000000000001,
            "count": 4
        },
        "CooperativeBehaviour.IsTraining.mean": {
            "value": 1.0,
            "min": 1.0,
            "max": 1.0,
            "count": 4
        },
        "CooperativeBehaviour.IsTraining.sum": {
            "value": 1.0,
            "min": 1.0,
            "max": 1.0,
            "count": 4
        }
    },
    "metadata": {
        "timer_format_version": "0.1.0",
        "start_time_seconds": "1641921694",
        "python_version": "3.9.9 (tags/v3.9.9:ccb0e6a, Nov 15 2021, 18:08:50) [MSC v.1929 64 bit (AMD64)]",
        "command_line_arguments": "D:\\MultiAgentCollab\\venv\\Scripts\\mlagents-learn .\\config\\CooperativeBehaviour.yaml --run-id=MultiAgent_13 --force",
        "mlagents_version": "0.27.0",
        "mlagents_envs_version": "0.27.0",
        "communication_protocol_version": "1.5.0",
        "pytorch_version": "1.7.1+cu110",
        "numpy_version": "1.22.0",
        "end_time_seconds": "1641923464"
    },
    "total": 1770.1326709,
    "count": 1,
    "self": 0.0050666999998156825,
    "children": {
        "run_training.setup": {
            "total": 0.12734230000000002,
            "count": 1,
            "self": 0.12734230000000002
        },
        "TrainerController.start_learning": {
            "total": 1770.0002619000002,
            "count": 1,
            "self": 3.0988447999779964,
            "children": {
                "TrainerController._reset_env": {
                    "total": 12.612876,
                    "count": 1,
                    "self": 12.612876
                },
                "TrainerController.advance": {
                    "total": 1753.497506100022,
                    "count": 150014,
                    "self": 3.034070600043151,
                    "children": {
                        "env_step": {
                            "total": 1575.0176354999783,
                            "count": 150014,
                            "self": 1090.517864299967,
                            "children": {
                                "SubprocessEnvManager._take_step": {
                                    "total": 482.4700551000095,
                                    "count": 150014,
                                    "self": 9.214064299993424,
                                    "children": {
                                        "TorchPolicy.evaluate": {
                                            "total": 473.2559908000161,
                                            "count": 149827,
                                            "self": 195.8514471999888,
                                            "children": {
                                                "TorchPolicy.sample_actions": {
                                                    "total": 277.4045436000273,
                                                    "count": 149827,
                                                    "self": 277.4045436000273
                                                }
                                            }
                                        }
                                    }
                                },
                                "workers": {
                                    "total": 2.0297161000018384,
                                    "count": 150013,
                                    "self": 0.0,
                                    "children": {
                                        "worker_root": {
                                            "total": 1757.0737196000093,
                                            "count": 150013,
                                            "is_parallel": true,
                                            "self": 817.225607300025,
                                            "children": {
                                                "steps_from_proto": {
                                                    "total": 0.00037269999999978154,
                                                    "count": 1,
                                                    "is_parallel": true,
                                                    "self": 0.0002101999999979398,
                                                    "children": {
                                                        "_process_rank_one_or_two_observation": {
                                                            "total": 0.00016250000000184173,
                                                            "count": 2,
                                                            "is_parallel": true,
                                                            "self": 0.00016250000000184173
                                                        }
                                                    }
                                                },
                                                "UnityEnvironment.step": {
                                                    "total": 939.8477395999844,
                                                    "count": 150013,
                                                    "is_parallel": true,
                                                    "self": 13.081931600062262,
                                                    "children": {
                                                        "UnityEnvironment._generate_step_input": {
                                                            "total": 12.650604599970537,
                                                            "count": 150013,
                                                            "is_parallel": true,
                                                            "self": 12.650604599970537
                                                        },
                                                        "communicator.exchange": {
                                                            "total": 869.0544463999818,
                                                            "count": 150013,
                                                            "is_parallel": true,
                                                            "self": 869.0544463999818
                                                        },
                                                        "steps_from_proto": {
                                                            "total": 45.06075699996982,
                                                            "count": 150013,
                                                            "is_parallel": true,
                                                            "self": 28.2462499999825,
                                                            "children": {
                                                                "_process_rank_one_or_two_observation": {
                                                                    "total": 16.81450699998732,
                                                                    "count": 300026,
                                                                    "is_parallel": true,
                                                                    "self": 16.81450699998732
                                                                }
                                                            }
                                                        }
                                                    }
                                                }
                                            }
                                        }
                                    }
                                }
                            }
                        },
                        "trainer_advance": {
                            "total": 175.44580000000065,
                            "count": 150013,
                            "self": 3.728584300000108,
                            "children": {
                                "process_trajectory": {
                                    "total": 83.16875710000045,
                                    "count": 150013,
                                    "self": 83.16875710000045
                                },
                                "_update_policy": {
                                    "total": 88.54845860000009,
                                    "count": 29,
                                    "self": 48.08925460000121,
                                    "children": {
                                        "TorchPOCAOptimizer.update": {
                                            "total": 40.45920399999888,
                                            "count": 870,
                                            "self": 40.45920399999888
                                        }
                                    }
                                }
                            }
                        }
                    }
                },
                "trainer_threads": {
                    "total": 9.000000318337698e-07,
                    "count": 1,
                    "self": 9.000000318337698e-07
                },
                "TrainerController._save_models": {
                    "total": 0.7910341000001608,
                    "count": 1,
                    "self": 0.0016783000000941684,
                    "children": {
                        "RLTrainer._checkpoint": {
                            "total": 0.7893558000000667,
                            "count": 1,
                            "self": 0.7893558000000667
                        }
                    }
                }
            }
        }
    }
}