{
    "name": "root",
    "metadata": {
        "timer_format_version": "0.1.0",
        "start_time_seconds": "1641885021",
        "python_version": "3.9.9 (tags/v3.9.9:ccb0e6a, Nov 15 2021, 18:08:50) [MSC v.1929 64 bit (AMD64)]",
        "command_line_arguments": "D:\\MultiAgentCollab\\venv\\Scripts\\mlagents-learn .\\config\\CooperativeBehaviour.yaml --run-id=MultiAgent_06",
        "mlagents_version": "0.27.0",
        "mlagents_envs_version": "0.27.0",
        "communication_protocol_version": "1.5.0",
        "pytorch_version": "1.7.1+cu110",
        "numpy_version": "1.22.0",
        "end_time_seconds": "1641885372"
    },
    "total": 351.0186599,
    "count": 1,
    "self": 0.059992399999998725,
    "children": {
        "run_training.setup": {
            "total": 0.15107780000000015,
            "count": 1,
            "self": 0.15107780000000015
        },
        "TrainerController.start_learning": {
            "total": 350.8075897,
            "count": 1,
            "self": 0.6169776999992109,
            "children": {
                "TrainerController._reset_env": {
                    "total": 38.2551207,
                    "count": 1,
                    "self": 38.2551207
                },
                "TrainerController.advance": {
                    "total": 295.97706480000073,
                    "count": 26817,
                    "self": 0.5872240999922269,
                    "children": {
                        "env_step": {
                            "total": 262.7955239000057,
                            "count": 26817,
                            "self": 189.2793379000028,
                            "children": {
                                "SubprocessEnvManager._take_step": {
                                    "total": 73.16069329999945,
                                    "count": 26817,
                                    "self": 1.9220144000038601,
                                    "children": {
                                        "TorchPolicy.evaluate": {
                                            "total": 71.23867889999559,
                                            "count": 26714,
                                            "self": 28.468984899998844,
                                            "children": {
                                                "TorchPolicy.sample_actions": {
                                                    "total": 42.76969399999675,
                                                    "count": 26714,
                                                    "self": 42.76969399999675
                                                }
                                            }
                                        }
                                    }
                                },
                                "workers": {
                                    "total": 0.35549270000347377,
                                    "count": 26816,
                                    "self": 0.0,
                                    "children": {
                                        "worker_root": {
                                            "total": 318.4541310999988,
                                            "count": 26816,
                                            "is_parallel": true,
                                            "self": 157.03057539999784,
                                            "children": {
                                                "steps_from_proto": {
                                                    "total": 0.0005152000000006041,
                                                    "count": 1,
                                                    "is_parallel": true,
                                                    "self": 0.00021399999999971442,
                                                    "children": {
                                                        "_process_rank_one_or_two_observation": {
                                                            "total": 0.00030120000000088964,
                                                            "count": 2,
                                                            "is_parallel": true,
                                                            "self": 0.00030120000000088964
                                                        }
                                                    }
                                                },
                                                "UnityEnvironment.step": {
                                                    "total": 161.42304050000095,
                                                    "count": 26816,
                                                    "is_parallel": true,
                                                    "self": 2.4259501999996758,
                                                    "children": {
                                                        "UnityEnvironment._generate_step_input": {
                                                            "total": 2.2925915000014356,
                                                            "count": 26816,
                                                            "is_parallel": true,
                                                            "self": 2.2925915000014356
                                                        },
                                                        "communicator.exchange": {
                                                            "total": 150.59776340000187,
                                                            "count": 26816,
                                                            "is_parallel": true,
                                                            "self": 150.59776340000187
                                                        },
                                                        "steps_from_proto": {
                                                            "total": 6.106735399997966,
                                                            "count": 26816,
                                                            "is_parallel": true,
                                                            "self": 3.142855299999539,
                                                            "children": {
                                                                "_process_rank_one_or_two_observation": {
                                                                    "total": 2.963880099998427,
                                                                    "count": 53632,
                                                                    "is_parallel": true,
                                                                    "self": 2.963880099998427
                                                                }
                                                            }
                                                        }
                                                    }
                                                }
                                            }
                                        }
                                    }
                                }
                            }
                        },
                        "trainer_advance": {
                            "total": 32.59431680000277,
                            "count": 26816,
                            "self": 0.6683910000033251,
                            "children": {
                                "process_trajectory": {
                                    "total": 15.473668499999448,
                                    "count": 26816,
                                    "self": 15.473668499999448
                                },
                                "_update_policy": {
                                    "total": 16.4522573,
                                    "count": 5,
                                    "self": 8.60491139999995,
                                    "children": {
                                        "TorchPOCAOptimizer.update": {
                                            "total": 7.84734590000005,
                                            "count": 150,
                                            "self": 7.84734590000005
                                        }
                                    }
                                }
                            }
                        }
                    }
                },
                "trainer_threads": {
                    "total": 9.000000318337698e-07,
                    "count": 1,
                    "self": 9.000000318337698e-07
                },
                "TrainerController._save_models": {
                    "total": 15.958425599999998,
                    "count": 1,
                    "self": 0.0018410000000130822,
                    "children": {
                        "RLTrainer._checkpoint": {
                            "total": 15.956584599999985,
                            "count": 1,
                            "self": 15.956584599999985
                        }
                    }
                }
            }
        }
    }
}