{
    "name": "root",
    "gauges": {
        "CooperativeBehaviour.Policy.Entropy.mean": {
            "value": 1.3836922645568848,
            "min": 1.3836922645568848,
            "max": 1.4185099601745605,
            "count": 8
        },
        "CooperativeBehaviour.Policy.Entropy.sum": {
            "value": 69115.4296875,
            "min": 69115.4296875,
            "max": 71073.0234375,
            "count": 8
        },
        "CooperativeBehaviour.Step.mean": {
            "value": 399959.0,
            "min": 49997.0,
            "max": 399959.0,
            "count": 8
        },
        "CooperativeBehaviour.Step.sum": {
            "value": 399959.0,
            "min": 49997.0,
            "max": 399959.0,
            "count": 8
        },
        "CooperativeBehaviour.Policy.ExtrinsicValueEstimate.mean": {
            "value": 5.3803229331970215,
            "min": -3.5511834621429443,
            "max": 5.982861518859863,
            "count": 8
        },
        "CooperativeBehaviour.Policy.ExtrinsicValueEstimate.sum": {
            "value": 4347.30078125,
            "min": -2840.94677734375,
            "max": 5007.6552734375,
            "count": 8
        },
        "CooperativeBehaviour.Environment.EpisodeLength.mean": {
            "value": 705.1549295774648,
            "min": 429.96491228070175,
            "max": 999.0,
            "count": 8
        },
        "CooperativeBehaviour.Environment.EpisodeLength.sum": {
            "value": 50066.0,
            "min": 48763.0,
            "max": 50939.0,
            "count": 8
        },
        "CooperativeBehaviour.Environment.CumulativeReward.mean": {
            "value": 43.61126886623006,
            "min": -117.86463298884834,
            "max": 82.69912537670972,
            "count": 8
        },
        "CooperativeBehaviour.Environment.CumulativeReward.sum": {
            "value": 3096.4000895023346,
            "min": -9664.899905085564,
            "max": 9427.700292944908,
            "count": 8
        },
        "CooperativeBehaviour.Policy.ExtrinsicReward.mean": {
            "value": 43.61126886623006,
            "min": -117.86463298884834,
            "max": 82.69912537670972,
            "count": 8
        },
        "CooperativeBehaviour.Policy.ExtrinsicReward.sum": {
            "value": 3096.4000895023346,
            "min": -9664.899905085564,
            "max": 9427.700292944908,
            "count": 8
        },
        "CooperativeBehaviour.Losses.PolicyLoss.mean": {
            "value": 0.023208636518878244,
            "min": 0.02248545033236345,
            "max": 0.027126235365479562,
            "count": 8
        },
        "CooperativeBehaviour.Losses.PolicyLoss.sum": {
            "value": 0.09283454607551297,
            "min": 0.09283454607551297,
            "max": 0.12275203497459491,
            "count": 8
        },
        "CooperativeBehaviour.Losses.ValueLoss.mean": {
            "value": 43.38522725900014,
            "min": 0.03213058552394311,
            "max": 245.65246444702143,
            "count": 8
        },
        "CooperativeBehaviour.Losses.ValueLoss.sum": {
            "value": 173.54090903600056,
            "min": 0.16065292761971553,
            "max": 1228.2623222351071,
            "count": 8
        },
        "CooperativeBehaviour.Policy.LearningRate.mean": {
            "value": 7.516762494414998e-05,
            "min": 7.516762494414998e-05,
            "max": 0.00028459845513384993,
            "count": 8
        },
        "CooperativeBehaviour.Policy.LearningRate.sum": {
            "value": 0.00030067049977659994,
            "min": 0.00030067049977659994,
            "max": 0.0012843930718690001,
            "count": 8
        },
        "CooperativeBehaviour.Policy.Epsilon.mean": {
            "value": 0.12505585,
            "min": 0.12505585,
            "max": 0.19486615000000002,
            "count": 8
        },
        "CooperativeBehaviour.Policy.Epsilon.sum": {
            "value": 0.5002234,
            "min": 0.5002234,
            "max": 0.9281310000000002,
            "count": 8
        },
        "CooperativeBehaviour.Policy.Beta.mean": {
            "value": 0.001260286915,
            "min": 0.001260286915,
            "max": 0.0047438208850000005,
            "count": 8
        },
        "CooperativeBehaviour.Policy.Beta.sum": {
            "value": 0.00504114766,
            "min": 0.00504114766,
            "max": 0.021413736900000008,
            "count": 8
        },
        "CooperativeBehaviour.IsTraining.mean": {
            "value": 1.0,
            "min": 1.0,
            "max": 1.0,
            "count": 8
        },
        "CooperativeBehaviour.IsTraining.sum": {
            "value": 1.0,
            "min": 1.0,
            "max": 1.0,
            "count": 8
        }
    },
    "metadata": {
        "timer_format_version": "0.1.0",
        "start_time_seconds": "1641768806",
        "python_version": "3.9.9 (tags/v3.9.9:ccb0e6a, Nov 15 2021, 18:08:50) [MSC v.1929 64 bit (AMD64)]",
        "command_line_arguments": "D:\\MultiAgentCollab\\venv\\Scripts\\mlagents-learn --run-id=MultiAgent_04",
        "mlagents_version": "0.27.0",
        "mlagents_envs_version": "0.27.0",
        "communication_protocol_version": "1.5.0",
        "pytorch_version": "1.7.1+cu110",
        "numpy_version": "1.22.0",
        "end_time_seconds": "1641771018"
    },
    "total": 2211.3676206,
    "count": 1,
    "self": 0.006088300000101299,
    "children": {
        "run_training.setup": {
            "total": 0.06344159999999999,
            "count": 1,
            "self": 0.06344159999999999
        },
        "TrainerController.start_learning": {
            "total": 2211.2980907,
            "count": 1,
            "self": 4.741319200026737,
            "children": {
                "TrainerController._reset_env": {
                    "total": 19.1968055,
                    "count": 1,
                    "self": 19.1968055
                },
                "TrainerController.advance": {
                    "total": 2186.490863299973,
                    "count": 220725,
                    "self": 4.579252900062784,
                    "children": {
                        "env_step": {
                            "total": 2037.2773006999214,
                            "count": 220725,
                            "self": 1443.4324305999153,
                            "children": {
                                "SubprocessEnvManager._take_step": {
                                    "total": 590.864111599993,
                                    "count": 220725,
                                    "self": 15.387554199957549,
                                    "children": {
                                        "TorchPolicy.evaluate": {
                                            "total": 575.4765574000354,
                                            "count": 220301,
                                            "self": 250.5300959999363,
                                            "children": {
                                                "TorchPolicy.sample_actions": {
                                                    "total": 324.9464614000991,
                                                    "count": 220301,
                                                    "self": 324.9464614000991
                                                }
                                            }
                                        }
                                    }
                                },
                                "workers": {
                                    "total": 2.980758500013028,
                                    "count": 220724,
                                    "self": 0.0,
                                    "children": {
                                        "worker_root": {
                                            "total": 2189.5797077000143,
                                            "count": 220724,
                                            "is_parallel": true,
                                            "self": 965.23506430001,
                                            "children": {
                                                "steps_from_proto": {
                                                    "total": 0.000267499999999643,
                                                    "count": 1,
                                                    "is_parallel": true,
                                                    "self": 0.00010949999999887439,
                                                    "children": {
                                                        "_process_rank_one_or_two_observation": {
                                                            "total": 0.00015800000000076864,
                                                            "count": 2,
                                                            "is_parallel": true,
                                                            "self": 0.00015800000000076864
                                                        }
                                                    }
                                                },
                                                "UnityEnvironment.step": {
                                                    "total": 1224.3443759000043,
                                                    "count": 220724,
                                                    "is_parallel": true,
                                                    "self": 19.313779299879343,
                                                    "children": {
                                                        "UnityEnvironment._generate_step_input": {
                                                            "total": 18.52247900005913,
                                                            "count": 220724,
                                                            "is_parallel": true,
                                                            "self": 18.52247900005913
                                                        },
                                                        "communicator.exchange": {
                                                            "total": 1136.3414036000293,
                                                            "count": 220724,
                                                            "is_parallel": true,
                                                            "self": 1136.3414036000293
                                                        },
                                                        "steps_from_proto": {
                                                            "total": 50.16671400003656,
                                                            "count": 220724,
                                                            "is_parallel": true,
                                                            "self": 26.23312500001769,
                                                            "children": {
                                                                "_process_rank_one_or_two_observation": {
                                                                    "total": 23.933589000018873,
                                                                    "count": 441448,
                                                                    "is_parallel": true,
                                                                    "self": 23.933589000018873
                                                                }
                                                            }
                                                        }
                                                    }
                                                }
                                            }
                                        }
                                    }
                                }
                            }
                        },
                        "trainer_advance": {
                            "total": 144.63430969998907,
                            "count": 220724,
                            "self": 5.393394099983169,
                            "children": {
                                "process_trajectory": {
                                    "total": 51.61434910000624,
                                    "count": 220724,
                                    "self": 51.61434910000624
                                },
                                "_update_policy": {
                                    "total": 87.62656649999965,
                                    "count": 42,
                                    "self": 65.4540953000011,
                                    "children": {
                                        "TorchPPOOptimizer.update": {
                                            "total": 22.172471199998554,
                                            "count": 1260,
                                            "self": 22.172471199998554
                                        }
                                    }
                                }
                            }
                        }
                    }
                },
                "trainer_threads": {
                    "total": 9.000000318337698e-07,
                    "count": 1,
                    "self": 9.000000318337698e-07
                },
                "TrainerController._save_models": {
                    "total": 0.8691017999999531,
                    "count": 1,
                    "self": 0.0021865999997316976,
                    "children": {
                        "RLTrainer._checkpoint": {
                            "total": 0.8669152000002214,
                            "count": 1,
                            "self": 0.8669152000002214
                        }
                    }
                }
            }
        }
    }
}