{
    "name": "root",
    "gauges": {
        "CooperativeBehaviour.Policy.Entropy.mean": {
            "value": 0.5865638256072998,
            "min": 0.5716419219970703,
            "max": 1.9320526123046875,
            "count": 28
        },
        "CooperativeBehaviour.Policy.Entropy.sum": {
            "value": 35149.25,
            "min": 34332.8125,
            "max": 116027.484375,
            "count": 28
        },
        "CooperativeBehaviour.Environment.EpisodeLength.mean": {
            "value": 107.06521739130434,
            "min": 96.98205546492659,
            "max": 1820.1515151515152,
            "count": 28
        },
        "CooperativeBehaviour.Environment.EpisodeLength.sum": {
            "value": 59100.0,
            "min": 57983.0,
            "max": 61728.0,
            "count": 28
        },
        "CooperativeBehaviour.Step.mean": {
            "value": 1679938.0,
            "min": 59976.0,
            "max": 1679938.0,
            "count": 28
        },
        "CooperativeBehaviour.Step.sum": {
            "value": 1679938.0,
            "min": 59976.0,
            "max": 1679938.0,
            "count": 28
        },
        "CooperativeBehaviour.Policy.ExtrinsicBaselineEstimate.mean": {
            "value": 367.5538024902344,
            "min": 0.29895493388175964,
            "max": 367.5538024902344,
            "count": 28
        },
        "CooperativeBehaviour.Policy.ExtrinsicBaselineEstimate.sum": {
            "value": 435551.25,
            "min": 290.2852478027344,
            "max": 435551.25,
            "count": 28
        },
        "CooperativeBehaviour.Policy.ExtrinsicValueEstimate.mean": {
            "value": 375.9605407714844,
            "min": 0.434112012386322,
            "max": 375.9605407714844,
            "count": 28
        },
        "CooperativeBehaviour.Policy.ExtrinsicValueEstimate.sum": {
            "value": 445513.25,
            "min": 421.52276611328125,
            "max": 445513.25,
            "count": 28
        },
        "CooperativeBehaviour.Environment.CumulativeReward.mean": {
            "value": -0.5217359786007763,
            "min": -10.842352978337336,
            "max": -0.45679388789971936,
            "count": 28
        },
        "CooperativeBehaviour.Environment.CumulativeReward.sum": {
            "value": -288.51999616622925,
            "min": -2259.2000239379704,
            "max": -220.28999689221382,
            "count": 28
        },
        "CooperativeBehaviour.Policy.ExtrinsicReward.mean": {
            "value": 256.0414186644942,
            "min": 17.329691543846447,
            "max": 260.8948760994973,
            "count": 28
        },
        "CooperativeBehaviour.Policy.ExtrinsicReward.sum": {
            "value": 141590.9045214653,
            "min": 1178.4190249815583,
            "max": 146767.67285370827,
            "count": 28
        },
        "CooperativeBehaviour.Losses.PolicyLoss.mean": {
            "value": 0.022195031967324513,
            "min": 0.019278725190088154,
            "max": 0.026764741126033997,
            "count": 28
        },
        "CooperativeBehaviour.Losses.PolicyLoss.sum": {
            "value": 0.13317019180394707,
            "min": 0.09639362595044076,
            "max": 0.16058844675620398,
            "count": 28
        },
        "CooperativeBehaviour.Losses.ValueLoss.mean": {
            "value": 1563.6841891818576,
            "min": 2.6413685671488443,
            "max": 1739.0429260253904,
            "count": 28
        },
        "CooperativeBehaviour.Losses.ValueLoss.sum": {
            "value": 9382.105135091146,
            "min": 13.206842835744222,
            "max": 10434.257556152343,
            "count": 28
        },
        "CooperativeBehaviour.Losses.BaselineLoss.mean": {
            "value": 1778.4668301052516,
            "min": 2.8350175221761065,
            "max": 2114.678817409939,
            "count": 28
        },
        "CooperativeBehaviour.Losses.BaselineLoss.sum": {
            "value": 10670.80098063151,
            "min": 14.175087610880533,
            "max": 12688.072904459634,
            "count": 28
        },
        "CooperativeBehaviour.Policy.LearningRate.mean": {
            "value": 0.0003,
            "min": 0.0003,
            "max": 0.0003,
            "count": 28
        },
        "CooperativeBehaviour.Policy.LearningRate.sum": {
            "value": 0.0017999999999999997,
            "min": 0.0014999999999999998,
            "max": 0.0017999999999999997,
            "count": 28
        },
        "CooperativeBehaviour.Policy.Epsilon.mean": {
            "value": 0.2000000000000001,
            "min": 0.2000000000000001,
            "max": 0.2000000000000001,
            "count": 28
        },
        "CooperativeBehaviour.Policy.Epsilon.sum": {
            "value": 1.2000000000000006,
            "min": 1.0000000000000004,
            "max": 1.2000000000000006,
            "count": 28
        },
        "CooperativeBehaviour.Policy.Beta.mean": {
            "value": 0.010000000000000002,
            "min": 0.010000000000000002,
            "max": 0.010000000000000002,
            "count": 28
        },
        "CooperativeBehaviour.Policy.Beta.sum": {
            "value": 0.06000000000000001,
            "min": 0.05000000000000001,
            "max": 0.06000000000000001,
            "count": 28
        },
        "CooperativeBehaviour.IsTraining.mean": {
            "value": 1.0,
            "min": 1.0,
            "max": 1.0,
            "count": 28
        },
        "CooperativeBehaviour.IsTraining.sum": {
            "value": 1.0,
            "min": 1.0,
            "max": 1.0,
            "count": 28
        },
        "CooperativeBehaviour.Environment.GroupCumulativeReward.mean": {
            "value": 306.2357437610626,
            "min": 87.52948705106974,
            "max": 306.2357437610626,
            "count": 3
        },
        "CooperativeBehaviour.Environment.GroupCumulativeReward.sum": {
            "value": 306.2357437610626,
            "min": 87.52948705106974,
            "max": 306.2357437610626,
            "count": 3
        }
    },
    "metadata": {
        "timer_format_version": "0.1.0",
        "start_time_seconds": "1641923545",
        "python_version": "3.9.9 (tags/v3.9.9:ccb0e6a, Nov 15 2021, 18:08:50) [MSC v.1929 64 bit (AMD64)]",
        "command_line_arguments": "D:\\MultiAgentCollab\\venv\\Scripts\\mlagents-learn .\\config\\CooperativeBehaviour.yaml --run-id=MultiAgent_14",
        "mlagents_version": "0.27.0",
        "mlagents_envs_version": "0.27.0",
        "communication_protocol_version": "1.5.0",
        "pytorch_version": "1.7.1+cu110",
        "numpy_version": "1.22.0",
        "end_time_seconds": "1641933244"
    },
    "total": 9698.659654699999,
    "count": 1,
    "self": 0.198502200000803,
    "children": {
        "run_training.setup": {
            "total": 0.12781850000000006,
            "count": 1,
            "self": 0.12781850000000006
        },
        "TrainerController.start_learning": {
            "total": 9698.333333999999,
            "count": 1,
            "self": 17.545163900222178,
            "children": {
                "TrainerController._reset_env": {
                    "total": 10.975273000000001,
                    "count": 1,
                    "self": 10.975273000000001
                },
                "TrainerController.advance": {
                    "total": 9669.711326599776,
                    "count": 853330,
                    "self": 18.181042499403702,
                    "children": {
                        "env_step": {
                            "total": 8619.834935200115,
                            "count": 853330,
                            "self": 5951.002328500296,
                            "children": {
                                "SubprocessEnvManager._take_step": {
                                    "total": 2657.845810099603,
                                    "count": 853330,
                                    "self": 52.16551429963192,
                                    "children": {
                                        "TorchPolicy.evaluate": {
                                            "total": 2605.680295799971,
                                            "count": 845081,
                                            "self": 1079.6769645002819,
                                            "children": {
                                                "TorchPolicy.sample_actions": {
                                                    "total": 1526.0033312996893,
                                                    "count": 845081,
                                                    "self": 1526.0033312996893
                                                }
                                            }
                                        }
                                    }
                                },
                                "workers": {
                                    "total": 10.986796600215843,
                                    "count": 853329,
                                    "self": 0.0,
                                    "children": {
                                        "worker_root": {
                                            "total": 9668.335701200025,
                                            "count": 853329,
                                            "is_parallel": true,
                                            "self": 4544.200460899701,
                                            "children": {
                                                "steps_from_proto": {
                                                    "total": 0.00037139999999968865,
                                                    "count": 1,
                                                    "is_parallel": true,
                                                    "self": 0.00020559999999925083,
                                                    "children": {
                                                        "_process_rank_one_or_two_observation": {
                                                            "total": 0.00016580000000043782,
                                                            "count": 2,
                                                            "is_parallel": true,
                                                            "self": 0.00016580000000043782
                                                        }
                                                    }
                                                },
                                                "UnityEnvironment.step": {
                                                    "total": 5124.134868900323,
                                                    "count": 853329,
                                                    "is_parallel": true,
                                                    "self": 71.76597150045836,
                                                    "children": {
                                                        "UnityEnvironment._generate_step_input": {
                                                            "total": 70.02198929994783,
                                                            "count": 853329,
                                                            "is_parallel": true,
                                                            "self": 70.02198929994783
                                                        },
                                                        "communicator.exchange": {
                                                            "total": 4734.550895499863,
                                                            "count": 853329,
                                                            "is_parallel": true,
                                                            "self": 4734.550895499863
                                                        },
                                                        "steps_from_proto": {
                                                            "total": 247.79601260005398,
                                                            "count": 853329,
                                                            "is_parallel": true,
                                                            "self": 156.32501329982878,
                                                            "children": {
                                                                "_process_rank_one_or_two_observation": {
                                                                    "total": 91.4709993002252,
                                                                    "count": 1706658,
                                                                    "is_parallel": true,
                                                                    "self": 91.4709993002252
                                                                }
                                                            }
                                                        }
                                                    }
                                                }
                                            }
                                        }
                                    }
                                }
                            }
                        },
                        "trainer_advance": {
                            "total": 1031.6953489002572,
                            "count": 853329,
                            "self": 21.855848400368586,
                            "children": {
                                "process_trajectory": {
                                    "total": 523.9571625998963,
                                    "count": 853329,
                                    "self": 522.9176890998958,
                                    "children": {
                                        "RLTrainer._checkpoint": {
                                            "total": 1.0394735000004403,
                                            "count": 3,
                                            "self": 1.0394735000004403
                                        }
                                    }
                                },
                                "_update_policy": {
                                    "total": 485.8823378999923,
                                    "count": 164,
                                    "self": 262.5927997999725,
                                    "children": {
                                        "TorchPOCAOptimizer.update": {
                                            "total": 223.2895381000198,
                                            "count": 4920,
                                            "self": 223.2895381000198
                                        }
                                    }
                                }
                            }
                        }
                    }
                },
                "trainer_threads": {
                    "total": 1.0000003385357559e-06,
                    "count": 1,
                    "self": 1.0000003385357559e-06
                },
                "TrainerController._save_models": {
                    "total": 0.10156950000055076,
                    "count": 1,
                    "self": 0.008256600001914194,
                    "children": {
                        "RLTrainer._checkpoint": {
                            "total": 0.09331289999863657,
                            "count": 1,
                            "self": 0.09331289999863657
                        }
                    }
                }
            }
        }
    }
}