{
    "CooperativeBehaviour": {
        "checkpoints": [
            {
                "steps": 499976,
                "file_path": "results\\MultiAgent_14\\CooperativeBehaviour\\CooperativeBehaviour-499976.onnx",
                "reward": -4.1977419367721005,
                "creation_time": 1641926325.6243892,
                "auxillary_file_paths": [
                    "results\\MultiAgent_14\\CooperativeBehaviour\\CooperativeBehaviour-499976.pt"
                ]
            },
            {
                "steps": 999999,
                "file_path": "results\\MultiAgent_14\\CooperativeBehaviour\\CooperativeBehaviour-999999.onnx",
                "reward": -2.4509091929278592,
                "creation_time": 1641929319.2057014,
                "auxillary_file_paths": [
                    "results\\MultiAgent_14\\CooperativeBehaviour\\CooperativeBehaviour-999999.pt"
                ]
            },
            {
                "steps": 1499995,
                "file_path": "results\\MultiAgent_14\\CooperativeBehaviour\\CooperativeBehaviour-1499995.onnx",
                "reward": -0.39499998837709427,
                "creation_time": 1641932137.9952056,
                "auxillary_file_paths": [
                    "results\\MultiAgent_14\\CooperativeBehaviour\\CooperativeBehaviour-1499995.pt"
                ]
            },
            {
                "steps": 1690094,
                "file_path": "results\\MultiAgent_14\\CooperativeBehaviour\\CooperativeBehaviour-1690094.onnx",
                "reward": -0.3149999923383196,
                "creation_time": 1641933244.2890537,
                "auxillary_file_paths": [
                    "results\\MultiAgent_14\\CooperativeBehaviour\\CooperativeBehaviour-1690094.pt"
                ]
            }
        ],
        "final_checkpoint": {
            "steps": 1690094,
            "file_path": "results\\MultiAgent_14\\CooperativeBehaviour.onnx",
            "reward": -0.3149999923383196,
            "creation_time": 1641933244.2890537,
            "auxillary_file_paths": [
                "results\\MultiAgent_14\\CooperativeBehaviour\\CooperativeBehaviour-1690094.pt"
            ]
        }
    },
    "metadata": {
        "stats_format_version": "0.3.0",
        "mlagents_version": "0.27.0",
        "torch_version": "1.7.1+cu110"
    }
}