{
    "name": "root",
    "gauges": {
        "CooperativeBehaviour.Policy.Entropy.mean": {
            "value": 1.4504709243774414,
            "min": 1.4230207204818726,
            "max": 1.4504709243774414,
            "count": 7
        },
        "CooperativeBehaviour.Policy.Entropy.sum": {
            "value": 87034.0546875,
            "min": 85392.625,
            "max": 87034.0546875,
            "count": 7
        },
        "CooperativeBehaviour.Step.mean": {
            "value": 419974.0,
            "min": 59940.0,
            "max": 419974.0,
            "count": 7
        },
        "CooperativeBehaviour.Step.sum": {
            "value": 419974.0,
            "min": 59940.0,
            "max": 419974.0,
            "count": 7
        },
        "CooperativeBehaviour.Policy.ExtrinsicBaselineEstimate.mean": {
            "value": -5.575473785400391,
            "min": -6.140438556671143,
            "max": -3.449949264526367,
            "count": 7
        },
        "CooperativeBehaviour.Policy.ExtrinsicBaselineEstimate.sum": {
            "value": -5358.0302734375,
            "min": -5931.66357421875,
            "max": -3374.05029296875,
            "count": 7
        },
        "CooperativeBehaviour.Policy.ExtrinsicValueEstimate.mean": {
            "value": -5.568435192108154,
            "min": -6.4886016845703125,
            "max": -3.8404510021209717,
            "count": 7
        },
        "CooperativeBehaviour.Policy.ExtrinsicValueEstimate.sum": {
            "value": -5351.26611328125,
            "min": -6267.9892578125,
            "max": -3686.8330078125,
            "count": 7
        },
        "CooperativeBehaviour.Environment.EpisodeLength.mean": {
            "value": 1876.40625,
            "min": 653.6222222222223,
            "max": 1954.774193548387,
            "count": 7
        },
        "CooperativeBehaviour.Environment.EpisodeLength.sum": {
            "value": 60045.0,
            "min": 58826.0,
            "max": 60598.0,
            "count": 7
        },
        "CooperativeBehaviour.Environment.CumulativeReward.mean": {
            "value": -56.31874945969321,
            "min": -58.66774135828018,
            "max": -19.626666520701516,
            "count": 7
        },
        "CooperativeBehaviour.Environment.CumulativeReward.sum": {
            "value": -1802.1999827101827,
            "min": -1818.6999821066856,
            "max": -1766.3999868631363,
            "count": 7
        },
        "CooperativeBehaviour.Policy.ExtrinsicReward.mean": {
            "value": -126.5352030750364,
            "min": -150.4121473992572,
            "max": -61.18756602114687,
            "count": 7
        },
        "CooperativeBehaviour.Policy.ExtrinsicReward.sum": {
            "value": -4049.126498401165,
            "min": -12172.708491563797,
            "max": -3975.413973748684,
            "count": 7
        },
        "CooperativeBehaviour.Losses.PolicyLoss.mean": {
            "value": 0.02246591485415896,
            "min": 0.021671603974472316,
            "max": 0.023068929256664383,
            "count": 7
        },
        "CooperativeBehaviour.Losses.PolicyLoss.sum": {
            "value": 0.11232957427079479,
            "min": 0.11232957427079479,
            "max": 0.1384135755399863,
            "count": 7
        },
        "CooperativeBehaviour.Losses.ValueLoss.mean": {
            "value": 0.016775341623773178,
            "min": 0.016775341623773178,
            "max": 116.31394683122635,
            "count": 7
        },
        "CooperativeBehaviour.Losses.ValueLoss.sum": {
            "value": 0.08387670811886588,
            "min": 0.08387670811886588,
            "max": 581.5697341561317,
            "count": 7
        },
        "CooperativeBehaviour.Losses.BaselineLoss.mean": {
            "value": 0.0183872250529627,
            "min": 0.0183872250529627,
            "max": 148.06987346132598,
            "count": 7
        },
        "CooperativeBehaviour.Losses.BaselineLoss.sum": {
            "value": 0.0919361252648135,
            "min": 0.0919361252648135,
            "max": 740.3493673066299,
            "count": 7
        },
        "CooperativeBehaviour.Policy.LearningRate.mean": {
            "value": 0.0003,
            "min": 0.0003,
            "max": 0.0003,
            "count": 7
        },
        "CooperativeBehaviour.Policy.LearningRate.sum": {
            "value": 0.0014999999999999998,
            "min": 0.0014999999999999998,
            "max": 0.0017999999999999997,
            "count": 7
        },
        "CooperativeBehaviour.Policy.Epsilon.mean": {
            "value": 0.2000000000000001,
            "min": 0.2000000000000001,
            "max": 0.2000000000000001,
            "count": 7
        },
        "CooperativeBehaviour.Policy.Epsilon.sum": {
            "value": 1.0000000000000004,
            "min": 1.0000000000000004,
            "max": 1.2000000000000006,
            "count": 7
        },
        "CooperativeBehaviour.Policy.Beta.mean": {
            "value": 0.010000000000000002,
            "min": 0.010000000000000002,
            "max": 0.010000000000000002,
            "count": 7
        },
        "CooperativeBehaviour.Policy.Beta.sum": {
            "value": 0.05000000000000001,
            "min": 0.05000000000000001,
            "max": 0.06000000000000001,
            "count": 7
        },
        "CooperativeBehaviour.IsTraining.mean": {
            "value": 1.0,
            "min": 1.0,
            "max": 1.0,
            "count": 7
        },
        "CooperativeBehaviour.IsTraining.sum": {
            "value": 1.0,
            "min": 1.0,
            "max": 1.0,
            "count": 7
        },
        "CooperativeBehaviour.Environment.GroupCumulativeReward.mean": {
            "value": 0.5631245069036429,
            "min": 0.5631245069036429,
            "max": 0.5631245069036429,
            "count": 1
        },
        "CooperativeBehaviour.Environment.GroupCumulativeReward.sum": {
            "value": 12.388739151880145,
            "min": 12.388739151880145,
            "max": 12.388739151880145,
            "count": 1
        }
    },
    "metadata": {
        "timer_format_version": "0.1.0",
        "start_time_seconds": "1641885954",
        "python_version": "3.9.9 (tags/v3.9.9:ccb0e6a, Nov 15 2021, 18:08:50) [MSC v.1929 64 bit (AMD64)]",
        "command_line_arguments": "D:\\MultiAgentCollab\\venv\\Scripts\\mlagents-learn .\\config\\CooperativeBehaviour.yaml --run-id=MultiAgent_07",
        "mlagents_version": "0.27.0",
        "mlagents_envs_version": "0.27.0",
        "communication_protocol_version": "1.5.0",
        "pytorch_version": "1.7.1+cu110",
        "numpy_version": "1.22.0",
        "end_time_seconds": "1641888338"
    },
    "total": 2384.2748227,
    "count": 1,
    "self": 0.03398040000047331,
    "children": {
        "run_training.setup": {
            "total": 0.2631420000000002,
            "count": 1,
            "self": 0.2631420000000002
        },
        "TrainerController.start_learning": {
            "total": 2383.9777003,
            "count": 1,
            "self": 5.048108300059539,
            "children": {
                "TrainerController._reset_env": {
                    "total": 18.7480006,
                    "count": 1,
                    "self": 18.7480006
                },
                "TrainerController.advance": {
                    "total": 2355.9222064999403,
                    "count": 239458,
                    "self": 4.725021599960655,
                    "children": {
                        "env_step": {
                            "total": 2068.359785900027,
                            "count": 239458,
                            "self": 1457.7956824001226,
                            "children": {
                                "SubprocessEnvManager._take_step": {
                                    "total": 607.4301998999705,
                                    "count": 239458,
                                    "self": 16.087074999994684,
                                    "children": {
                                        "TorchPolicy.evaluate": {
                                            "total": 591.3431248999758,
                                            "count": 239281,
                                            "self": 259.0874293000184,
                                            "children": {
                                                "TorchPolicy.sample_actions": {
                                                    "total": 332.2556955999574,
                                                    "count": 239281,
                                                    "self": 332.2556955999574
                                                }
                                            }
                                        }
                                    }
                                },
                                "workers": {
                                    "total": 3.1339035999338343,
                                    "count": 239457,
                                    "self": 0.0,
                                    "children": {
                                        "worker_root": {
                                            "total": 2366.374387699976,
                                            "count": 239457,
                                            "is_parallel": true,
                                            "self": 1143.6599918999443,
                                            "children": {
                                                "steps_from_proto": {
                                                    "total": 0.00025920000000034804,
                                                    "count": 1,
                                                    "is_parallel": true,
                                                    "self": 0.00010970000000032343,
                                                    "children": {
                                                        "_process_rank_one_or_two_observation": {
                                                            "total": 0.0001495000000000246,
                                                            "count": 2,
                                                            "is_parallel": true,
                                                            "self": 0.0001495000000000246
                                                        }
                                                    }
                                                },
                                                "UnityEnvironment.step": {
                                                    "total": 1222.7141366000317,
                                                    "count": 239457,
                                                    "is_parallel": true,
                                                    "self": 20.491093200053,
                                                    "children": {
                                                        "UnityEnvironment._generate_step_input": {
                                                            "total": 20.000800399975823,
                                                            "count": 239457,
                                                            "is_parallel": true,
                                                            "self": 20.000800399975823
                                                        },
                                                        "communicator.exchange": {
                                                            "total": 1128.966654000039,
                                                            "count": 239457,
                                                            "is_parallel": true,
                                                            "self": 1128.966654000039
                                                        },
                                                        "steps_from_proto": {
                                                            "total": 53.255588999963976,
                                                            "count": 239457,
                                                            "is_parallel": true,
                                                            "self": 27.94032759991213,
                                                            "children": {
                                                                "_process_rank_one_or_two_observation": {
                                                                    "total": 25.315261400051845,
                                                                    "count": 478914,
                                                                    "is_parallel": true,
                                                                    "self": 25.315261400051845
                                                                }
                                                            }
                                                        }
                                                    }
                                                }
                                            }
                                        }
                                    }
                                }
                            }
                        },
                        "trainer_advance": {
                            "total": 282.83739899995254,
                            "count": 239457,
                            "self": 6.366285099927836,
                            "children": {
                                "process_trajectory": {
                                    "total": 135.3696489000235,
                                    "count": 239457,
                                    "self": 135.3696489000235
                                },
                                "_update_policy": {
                                    "total": 141.1014650000012,
                                    "count": 46,
                                    "self": 80.77324510000899,
                                    "children": {
                                        "TorchPOCAOptimizer.update": {
                                            "total": 60.32821989999222,
                                            "count": 1380,
                                            "self": 60.32821989999222
                                        }
                                    }
                                }
                            }
                        }
                    }
                },
                "trainer_threads": {
                    "total": 9.000000318337698e-07,
                    "count": 1,
                    "self": 9.000000318337698e-07
                },
                "TrainerController._save_models": {
                    "total": 4.2593839999999545,
                    "count": 1,
                    "self": 0.0015470000003006135,
                    "children": {
                        "RLTrainer._checkpoint": {
                            "total": 4.257836999999654,
                            "count": 1,
                            "self": 4.257836999999654
                        }
                    }
                }
            }
        }
    }
}