{
    "CooperativeBehaviour": {
        "checkpoints": [
            {
                "steps": 10999979,
                "file_path": "results\\MultiAgent_14_v3\\CooperativeBehaviour\\CooperativeBehaviour-10999979.onnx",
                "reward": -69.8974358974359,
                "creation_time": 1642036234.9922204,
                "auxillary_file_paths": [
                    "results\\MultiAgent_14_v3\\CooperativeBehaviour\\CooperativeBehaviour-10999979.pt"
                ]
            },
            {
                "steps": 11499955,
                "file_path": "results\\MultiAgent_14_v3\\CooperativeBehaviour\\CooperativeBehaviour-11499955.onnx",
                "reward": -64.0,
                "creation_time": 1642038900.041182,
                "auxillary_file_paths": [
                    "results\\MultiAgent_14_v3\\CooperativeBehaviour\\CooperativeBehaviour-11499955.pt"
                ]
            },
            {
                "steps": 11999949,
                "file_path": "results\\MultiAgent_14_v3\\CooperativeBehaviour\\CooperativeBehaviour-11999949.onnx",
                "reward": -65.25,
                "creation_time": 1642041430.7947013,
                "auxillary_file_paths": [
                    "results\\MultiAgent_14_v3\\CooperativeBehaviour\\CooperativeBehaviour-11999949.pt"
                ]
            },
            {
                "steps": 12499983,
                "file_path": "results\\MultiAgent_14_v3\\CooperativeBehaviour\\CooperativeBehaviour-12499983.onnx",
                "reward": -144.95652173913044,
                "creation_time": 1642043979.7935894,
                "auxillary_file_paths": [
                    "results\\MultiAgent_14_v3\\CooperativeBehaviour\\CooperativeBehaviour-12499983.pt"
                ]
            },
            {
                "steps": 12622862,
                "file_path": "results\\MultiAgent_14_v3\\CooperativeBehaviour\\CooperativeBehaviour-12622862.onnx",
                "reward": -40.857142857142854,
                "creation_time": 1642053673.3495946,
                "auxillary_file_paths": [
                    "results\\MultiAgent_14_v3\\CooperativeBehaviour\\CooperativeBehaviour-12622862.pt"
                ]
            }
        ],
        "final_checkpoint": {
            "steps": 12622862,
            "file_path": "results\\MultiAgent_14_v3\\CooperativeBehaviour.onnx",
            "reward": -40.857142857142854,
            "creation_time": 1642053673.3495946,
            "auxillary_file_paths": [
                "results\\MultiAgent_14_v3\\CooperativeBehaviour\\CooperativeBehaviour-12622862.pt"
            ]
        }
    },
    "metadata": {
        "stats_format_version": "0.3.0",
        "mlagents_version": "0.27.0",
        "torch_version": "1.7.1+cu110"
    }
}